{
    "basename": "asr-loop_unroll_large-c6b628b",
    "cmd": "lfortran --show-asr --no-color {infile} -o {outfile}",
    "infile": "tests/../integration_tests/loop_unroll_large.f90",
    "infile_hash": "6dea35d299ef0d2baadd87d2ed6132d3e57e15e85a4bef2d609d1d22",
    "outfile": null,
    "outfile_hash": null,
    "stdout": "asr-loop_unroll_large-c6b628b.stdout",
    "stdout_hash": "fd9d3583ee96a5896faccfb5e7ecd236e6b7cdac1641b22515325aa3",
    "stderr": null,
    "stderr_hash": null,
    "returncode": 0
}