{
    "basename": "asr-bin_op_complex_dp-26e149c",
    "cmd": "lfortran --show-asr --no-color {infile} -o {outfile}",
    "infile": "tests/../integration_tests/bin_op_complex_dp.f90",
    "infile_hash": "9be1b396941b73e1466a46963ee3ade085440ce077b444ce7e2f6baf",
    "outfile": null,
    "outfile_hash": null,
    "stdout": "asr-bin_op_complex_dp-26e149c.stdout",
    "stdout_hash": "e412c334bf70e8aa75413d7af0e308a2c48201417f090d6076f64b66",
    "stderr": null,
    "stderr_hash": null,
    "returncode": 0
}