{
    "basename": "asr-intrinsics_34-c5cfc20",
    "cmd": "lfortran --show-asr --no-color {infile} -o {outfile}",
    "infile": "tests/../integration_tests/intrinsics_34.f90",
    "infile_hash": "44268c572f1e8d1a0fd2e6f429d0b261bbf840fc385ec8100a7c5a96",
    "outfile": null,
    "outfile_hash": null,
    "stdout": "asr-intrinsics_34-c5cfc20.stdout",
    "stdout_hash": "7d53229f81c41ef8969aef551e9957835122c291ca78037a1150cf7d",
    "stderr": null,
    "stderr_hash": null,
    "returncode": 0
}