{
    "basename": "asr-intrinsics_39-f721e16",
    "cmd": "lfortran --show-asr --no-color {infile} -o {outfile}",
    "infile": "tests/../integration_tests/intrinsics_39.f90",
    "infile_hash": "48739b5fcc90b3cf3395c2e0de6a417df4f9079e8c6782ba179ee0bf",
    "outfile": null,
    "outfile_hash": null,
    "stdout": "asr-intrinsics_39-f721e16.stdout",
    "stdout_hash": "9b13a659e5ca7456c6db8f66d80a0c2f816e4dbf9dc14d6192ff15f1",
    "stderr": null,
    "stderr_hash": null,
    "returncode": 0
}