{
    "basename": "asr-arrays_op_4-ca3318f",
    "cmd": "lfortran --show-asr --no-color {infile} -o {outfile}",
    "infile": "tests/../integration_tests/arrays_op_4.f90",
    "infile_hash": "217baeb5f0a4438c9af1044fbcb9991796f27fdc7f8cb69be5213c8f",
    "outfile": null,
    "outfile_hash": null,
    "stdout": "asr-arrays_op_4-ca3318f.stdout",
    "stdout_hash": "301239ad1230959bba3bfca517cc43c65f7b6f921a17312374c40d3f",
    "stderr": null,
    "stderr_hash": null,
    "returncode": 0
}