{
    "basename": "asr-intrinsics_33-816caef",
    "cmd": "lfortran --show-asr --no-color {infile} -o {outfile}",
    "infile": "tests/../integration_tests/intrinsics_33.f90",
    "infile_hash": "e4ea9f413d213dd8fd6f6e412957737676b193db450eac1eda9f422f",
    "outfile": null,
    "outfile_hash": null,
    "stdout": "asr-intrinsics_33-816caef.stdout",
    "stdout_hash": "5f7f954c5162ec4b9a3d0dbb7b1465135be56bd55a02e20fa7e9c35a",
    "stderr": null,
    "stderr_hash": null,
    "returncode": 0
}