{
    "basename": "asr-case_05-8f778ac",
    "cmd": "lfortran --show-asr --no-color {infile} -o {outfile}",
    "infile": "tests/../integration_tests/case_05.f90",
    "infile_hash": "914477f4a376baf0341e522d2109b6108238cd1d9dfecf969283ab79",
    "outfile": null,
    "outfile_hash": null,
    "stdout": "asr-case_05-8f778ac.stdout",
    "stdout_hash": "dc118d4856e15c42662bdaba7f1cbd0e986d37ade89e62f7258b78eb",
    "stderr": null,
    "stderr_hash": null,
    "returncode": 0
}