{
    "basename": "asr-nested_05-00beea9",
    "cmd": "lfortran --show-asr --no-color {infile} -o {outfile}",
    "infile": "tests/../integration_tests/nested_05.f90",
    "infile_hash": "d402076738622c436981b46e6f637ef1baaa59760106ec55a7cb7469",
    "outfile": null,
    "outfile_hash": null,
    "stdout": "asr-nested_05-00beea9.stdout",
    "stdout_hash": "00f7a6684cc0d84f91550ad3710b75bd8a9a457c4a657b11fa3d8852",
    "stderr": null,
    "stderr_hash": null,
    "returncode": 0
}