{
    "basename": "asr-arrays_op_6-030b24e",
    "cmd": "lfortran --show-asr --no-color {infile} -o {outfile}",
    "infile": "tests/../integration_tests/arrays_op_6.f90",
    "infile_hash": "c714cdfef180f23c5c5708d96aabb474f944b24bd8c9c964a84a3ed1",
    "outfile": null,
    "outfile_hash": null,
    "stdout": "asr-arrays_op_6-030b24e.stdout",
    "stdout_hash": "b083da77e42cdf0a74bf3936f7cd6d2862e4a3553d763c746a36d04c",
    "stderr": null,
    "stderr_hash": null,
    "returncode": 0
}