{
    "basename": "asr-uppercase1-b7c06b1",
    "cmd": "lfortran --show-asr --no-color {infile} -o {outfile}",
    "infile": "tests/uppercase1.f90",
    "infile_hash": "5a65afa41100952259b9009c4fba9ad49c4090de264c0e38fcb37834",
    "outfile": null,
    "outfile_hash": null,
    "stdout": "asr-uppercase1-b7c06b1.stdout",
    "stdout_hash": "b0b18981a2af0c98e06b315348a39401521d7574a5ab8f35802ecbbf",
    "stderr": null,
    "stderr_hash": null,
    "returncode": 0
}