{
    "basename": "cpp-fn2-ff8ef37",
    "cmd": "lfortran --no-color --show-cpp {infile}",
    "infile": "tests/fn2.f90",
    "infile_hash": "9f61561c47397aa03014fe07094ac838ada4865e513025e384edae00",
    "outfile": null,
    "outfile_hash": null,
    "stdout": "cpp-fn2-ff8ef37.stdout",
    "stdout_hash": "3288108d63f1fed5037efd3f0014a8667e57dcf461a0e619080c9209",
    "stderr": null,
    "stderr_hash": null,
    "returncode": 0
}