{
    "basename": "cpp-subroutine5-272e7be",
    "cmd": "lfortran --no-color --show-cpp {infile}",
    "infile": "tests/subroutine5.f90",
    "infile_hash": "88c62ffd8f005d7a511511e43da68f25e8fe795a75fec462baa25885",
    "outfile": null,
    "outfile_hash": null,
    "stdout": "cpp-subroutine5-272e7be.stdout",
    "stdout_hash": "a86390926443279bda9eff7df39f87081d14f183288df1e6bab4da7f",
    "stderr": null,
    "stderr_hash": null,
    "returncode": 0
}