; ModuleID = 'LFortran'
source_filename = "LFortran"

%array = type { float*, i32, %dimension_descriptor*, i1, i32 }
%dimension_descriptor = type { i32, i32, i32, i32 }

@0 = private unnamed_addr constant [4 x i8] c"abs\00", align 1
@1 = private unnamed_addr constant [4 x i8] c"%s\0A\00", align 1
@2 = private unnamed_addr constant [4 x i8] c"sum\00", align 1
@3 = private unnamed_addr constant [4 x i8] c"%s\0A\00", align 1
@4 = private unnamed_addr constant [12 x i8] c"ERROR STOP\0A\00", align 1

define float @abs(float* %a) {
.entry:
  %r = alloca float, align 4
  call void (i8*, ...) @_lfortran_printf(i8* getelementptr inbounds ([4 x i8], [4 x i8]* @1, i32 0, i32 0), i8* getelementptr inbounds ([4 x i8], [4 x i8]* @0, i32 0, i32 0))
  %0 = load float, float* %a, align 4
  %1 = fcmp ugt float %0, 0.000000e+00
  br i1 %1, label %then, label %else

then:                                             ; preds = %.entry
  %2 = load float, float* %a, align 4
  store float %2, float* %r, align 4
  br label %ifcont

else:                                             ; preds = %.entry
  %3 = load float, float* %a, align 4
  %4 = fsub float 0.000000e+00, %3
  store float %4, float* %r, align 4
  br label %ifcont

ifcont:                                           ; preds = %else, %then
  br label %return

return:                                           ; preds = %ifcont
  %5 = load float, float* %r, align 4
  ret float %5
}

define float @sum(%array* %a) {
.entry:
  %i = alloca i32, align 4
  %r = alloca float, align 4
  call void (i8*, ...) @_lfortran_printf(i8* getelementptr inbounds ([4 x i8], [4 x i8]* @3, i32 0, i32 0), i8* getelementptr inbounds ([4 x i8], [4 x i8]* @2, i32 0, i32 0))
  store float 0.000000e+00, float* %r, align 4
  store i32 0, i32* %i, align 4
  br label %loop.head

loop.head:                                        ; preds = %loop.body2, %.entry
  %0 = load i32, i32* %i, align 4
  %1 = add i32 %0, 1
  %2 = load %array, %array* %a, align 8
  %3 = getelementptr %array, %array* %a, i32 0, i32 2
  %4 = load %dimension_descriptor*, %dimension_descriptor** %3, align 8
  %5 = getelementptr %array, %array* %a, i32 0, i32 4
  %6 = load i32, i32* %5, align 4
  %7 = alloca i32, align 4
  store i32 1, i32* %7, align 4
  %8 = alloca i32, align 4
  store i32 0, i32* %8, align 4
  br label %loop.head1

loop.head1:                                       ; preds = %loop.body, %loop.head
  %9 = load i32, i32* %8, align 4
  %10 = icmp slt i32 %9, %6
  br i1 %10, label %loop.body, label %loop.end

loop.body:                                        ; preds = %loop.head1
  %11 = load i32, i32* %8, align 4
  %12 = load i32, i32* %7, align 4
  %13 = getelementptr inbounds %dimension_descriptor, %dimension_descriptor* %4, i32 %11
  %14 = getelementptr %dimension_descriptor, %dimension_descriptor* %13, i32 0, i32 3
  %15 = load i32, i32* %14, align 4
  %16 = mul i32 %12, %15
  store i32 %16, i32* %7, align 4
  %17 = add i32 %11, 1
  store i32 %17, i32* %8, align 4
  br label %loop.head1

loop.end:                                         ; preds = %loop.head1
  %18 = load i32, i32* %7, align 4
  %19 = icmp sle i32 %1, %18
  br i1 %19, label %loop.body2, label %loop.end3

loop.body2:                                       ; preds = %loop.end
  %20 = load i32, i32* %i, align 4
  %21 = add i32 %20, 1
  store i32 %21, i32* %i, align 4
  %22 = load float, float* %r, align 4
  %23 = load i32, i32* %i, align 4
  %24 = getelementptr %array, %array* %a, i32 0, i32 2
  %25 = load %dimension_descriptor*, %dimension_descriptor** %24, align 8
  %26 = getelementptr inbounds %dimension_descriptor, %dimension_descriptor* %25, i32 0
  %27 = getelementptr %dimension_descriptor, %dimension_descriptor* %26, i32 0, i32 1
  %28 = load i32, i32* %27, align 4
  %29 = sub i32 %23, %28
  %30 = mul i32 1, %29
  %31 = add i32 0, %30
  %32 = getelementptr %dimension_descriptor, %dimension_descriptor* %26, i32 0, i32 3
  %33 = load i32, i32* %32, align 4
  %34 = mul i32 1, %33
  %35 = getelementptr %array, %array* %a, i32 0, i32 0
  %36 = load float*, float** %35, align 8
  %37 = getelementptr inbounds float, float* %36, i32 %31
  %38 = load float, float* %37, align 4
  %39 = fadd float %22, %38
  store float %39, float* %r, align 4
  br label %loop.head

loop.end3:                                        ; preds = %loop.end
  br label %return

return:                                           ; preds = %loop.end3
  %40 = load float, float* %r, align 4
  ret float %40
}

declare void @_lfortran_printf(i8*, ...)

define i32 @main() {
.entry:
  %call_arg_value = alloca float, align 4
  %a = alloca %array, align 8
  %0 = getelementptr %array, %array* %a, i32 0, i32 1
  store i32 0, i32* %0, align 4
  %1 = getelementptr %array, %array* %a, i32 0, i32 2
  %2 = alloca i32, align 4
  store i32 1, i32* %2, align 4
  %3 = load i32, i32* %2, align 4
  %4 = alloca %dimension_descriptor, i32 %3, align 8
  %5 = getelementptr %array, %array* %a, i32 0, i32 4
  store i32 1, i32* %5, align 4
  store %dimension_descriptor* %4, %dimension_descriptor** %1, align 8
  %6 = load %dimension_descriptor*, %dimension_descriptor** %1, align 8
  %7 = getelementptr inbounds %dimension_descriptor, %dimension_descriptor* %6, i32 0
  %8 = getelementptr %dimension_descriptor, %dimension_descriptor* %7, i32 0, i32 0
  %9 = getelementptr %dimension_descriptor, %dimension_descriptor* %7, i32 0, i32 1
  %10 = getelementptr %dimension_descriptor, %dimension_descriptor* %7, i32 0, i32 2
  %11 = getelementptr %dimension_descriptor, %dimension_descriptor* %7, i32 0, i32 3
  store i32 1, i32* %8, align 4
  store i32 1, i32* %9, align 4
  store i32 3, i32* %10, align 4
  %12 = load i32, i32* %10, align 4
  %13 = load i32, i32* %9, align 4
  %14 = sub i32 %12, %13
  %15 = add i32 %14, 1
  store i32 %15, i32* %11, align 4
  %16 = alloca i32, align 4
  store i32 3, i32* %16, align 4
  %17 = getelementptr %array, %array* %a, i32 0, i32 0
  %18 = load i32, i32* %16, align 4
  %19 = alloca float, i32 %18, align 4
  store float* %19, float** %17, align 8
  %b = alloca float, align 4
  %20 = getelementptr %array, %array* %a, i32 0, i32 2
  %21 = load %dimension_descriptor*, %dimension_descriptor** %20, align 8
  %22 = getelementptr inbounds %dimension_descriptor, %dimension_descriptor* %21, i32 0
  %23 = getelementptr %dimension_descriptor, %dimension_descriptor* %22, i32 0, i32 1
  %24 = load i32, i32* %23, align 4
  %25 = sub i32 1, %24
  %26 = mul i32 1, %25
  %27 = add i32 0, %26
  %28 = getelementptr %dimension_descriptor, %dimension_descriptor* %22, i32 0, i32 3
  %29 = load i32, i32* %28, align 4
  %30 = mul i32 1, %29
  %31 = getelementptr %array, %array* %a, i32 0, i32 0
  %32 = load float*, float** %31, align 8
  %33 = getelementptr inbounds float, float* %32, i32 %27
  store float 3.000000e+00, float* %33, align 4
  %34 = getelementptr %array, %array* %a, i32 0, i32 2
  %35 = load %dimension_descriptor*, %dimension_descriptor** %34, align 8
  %36 = getelementptr inbounds %dimension_descriptor, %dimension_descriptor* %35, i32 0
  %37 = getelementptr %dimension_descriptor, %dimension_descriptor* %36, i32 0, i32 1
  %38 = load i32, i32* %37, align 4
  %39 = sub i32 2, %38
  %40 = mul i32 1, %39
  %41 = add i32 0, %40
  %42 = getelementptr %dimension_descriptor, %dimension_descriptor* %36, i32 0, i32 3
  %43 = load i32, i32* %42, align 4
  %44 = mul i32 1, %43
  %45 = getelementptr %array, %array* %a, i32 0, i32 0
  %46 = load float*, float** %45, align 8
  %47 = getelementptr inbounds float, float* %46, i32 %41
  store float 2.000000e+00, float* %47, align 4
  %48 = getelementptr %array, %array* %a, i32 0, i32 2
  %49 = load %dimension_descriptor*, %dimension_descriptor** %48, align 8
  %50 = getelementptr inbounds %dimension_descriptor, %dimension_descriptor* %49, i32 0
  %51 = getelementptr %dimension_descriptor, %dimension_descriptor* %50, i32 0, i32 1
  %52 = load i32, i32* %51, align 4
  %53 = sub i32 3, %52
  %54 = mul i32 1, %53
  %55 = add i32 0, %54
  %56 = getelementptr %dimension_descriptor, %dimension_descriptor* %50, i32 0, i32 3
  %57 = load i32, i32* %56, align 4
  %58 = mul i32 1, %57
  %59 = getelementptr %array, %array* %a, i32 0, i32 0
  %60 = load float*, float** %59, align 8
  %61 = getelementptr inbounds float, float* %60, i32 %55
  store float 1.000000e+00, float* %61, align 4
  %62 = alloca %array, align 8
  %63 = call float @sum(%array* %a)
  store float %63, float* %b, align 4
  %64 = load float, float* %b, align 4
  %65 = fsub float %64, 6.000000e+00
  store float %65, float* %call_arg_value, align 4
  %66 = call float @abs(float* %call_arg_value)
  %67 = fcmp ugt float %66, 0x3EE4F8B580000000
  br i1 %67, label %then, label %else

then:                                             ; preds = %.entry
  call void (i8*, ...) @_lfortran_printf(i8* getelementptr inbounds ([12 x i8], [12 x i8]* @4, i32 0, i32 0))
  call void @exit(i32 1)
  br label %ifcont

else:                                             ; preds = %.entry
  br label %ifcont

ifcont:                                           ; preds = %else, %then
  ret i32 0
}

declare void @exit(i32)
