{
    "basename": "llvm-arrays_op_6-ae38631",
    "cmd": "lfortran --no-color --show-llvm {infile} -o {outfile}",
    "infile": "tests/../integration_tests/arrays_op_6.f90",
    "infile_hash": "c714cdfef180f23c5c5708d96aabb474f944b24bd8c9c964a84a3ed1",
    "outfile": null,
    "outfile_hash": null,
    "stdout": "llvm-arrays_op_6-ae38631.stdout",
    "stdout_hash": "5e7396e005b69f6bb47c4a85316ca34a19c750004605ea526fb610c7",
    "stderr": null,
    "stderr_hash": null,
    "returncode": 0
}