; ModuleID = 'LFortran'
source_filename = "LFortran"

%c_ptr = type { i32 }

@0 = private unnamed_addr constant [1 x i8] zeroinitializer, align 1
@1 = private unnamed_addr constant [4 x i8] c"%f\0A\00", align 1

declare i8* @__module_lfortran_intrinsic_builtin_char(i32*)

declare void @__module_lfortran_intrinsic_builtin_move_alloc(i32*, i32*)

declare void @__module_lfortran_intrinsic_iso_c_binding_c_f_pointer(%c_ptr*, i32*)

define void @__module_lfortran_intrinsic_math_cpu_time(double* %t) {
.entry:
  call void @_lfortran_cpu_time(double* %t)
  br label %return

return:                                           ; preds = %.entry
  ret void
}

declare void @_lfortran_cpu_time(double*)

define void @__module_lfortran_intrinsic_math_dp_rand_num(double* %harvest) {
.entry:
  call void @_lfortran_dp_rand_num(double* %harvest)
  br label %return

return:                                           ; preds = %.entry
  ret void
}

declare void @_lfortran_dp_rand_num(double*)

define void @__module_lfortran_intrinsic_math_i32sys_clock(i32* %count, i32* %count_rate, i32* %count_max) {
.entry:
  call void @_lfortran_i32sys_clock(i32* %count, i32* %count_rate, i32* %count_max)
  br label %return

return:                                           ; preds = %.entry
  ret void
}

declare void @_lfortran_i32sys_clock(i32*, i32*, i32*)

define void @__module_lfortran_intrinsic_math_i64sys_clock(i64* %count, i64* %count_rate, i64* %count_max) {
.entry:
  call void @_lfortran_i64sys_clock(i64* %count, i64* %count_rate, i64* %count_max)
  br label %return

return:                                           ; preds = %.entry
  ret void
}

declare void @_lfortran_i64sys_clock(i64*, i64*, i64*)

define float @__module_lfortran_intrinsic_math_scos(float* %x) {
.entry:
  %r = alloca float, align 4
  %0 = load float, float* %x, align 4
  %1 = call float @_lfortran_scos(float %0)
  store float %1, float* %r, align 4
  br label %return

return:                                           ; preds = %.entry
  %2 = load float, float* %r, align 4
  ret float %2
}

declare float @_lfortran_scos(float)

define void @__module_lfortran_intrinsic_math_sp_rand_num(float* %harvest) {
.entry:
  call void @_lfortran_sp_rand_num(float* %harvest)
  br label %return

return:                                           ; preds = %.entry
  ret void
}

declare void @_lfortran_sp_rand_num(float*)

define i32 @main() {
.entry:
  %x = alloca float, align 4
  store float 0xBFEFE8D5A0000000, float* %x, align 4
  %0 = load float, float* %x, align 4
  %1 = fpext float %0 to double
  call void (i8*, ...) @_lfortran_printf(i8* getelementptr inbounds ([4 x i8], [4 x i8]* @1, i32 0, i32 0), double %1)
  ret i32 0
}

declare void @_lfortran_printf(i8*, ...)
