{
    "basename": "llvm-allocate_01-573b1f6",
    "cmd": "lfortran --no-color --show-llvm {infile} -o {outfile}",
    "infile": "tests/../integration_tests/allocate_01.f90",
    "infile_hash": "96c52770cdc64608c1daf52a37e31fd4566ef0f27fe3b50cc483978d",
    "outfile": null,
    "outfile_hash": null,
    "stdout": "llvm-allocate_01-573b1f6.stdout",
    "stdout_hash": "ff1ee6943eebb095d10f483d3450c3cc5ffa4c9f623b2877d889936c",
    "stderr": null,
    "stderr_hash": null,
    "returncode": 0
}