{
    "basename": "pass_global_stmts-global_scope4-2d4061d",
    "cmd": "lfortran --pass=global_stmts --show-asr --no-color {infile} -o {outfile}",
    "infile": "tests/global_scope4.f90",
    "infile_hash": "da0256e95ad866af376d9ded3cd439463cb1e47dffac6aa88c0bbadf",
    "outfile": null,
    "outfile_hash": null,
    "stdout": "pass_global_stmts-global_scope4-2d4061d.stdout",
    "stdout_hash": "f78f44c5aa88788a18b189817c2aa54b55f198e88abe9088a0963cce",
    "stderr": null,
    "stderr_hash": null,
    "returncode": 0
}