{
    "basename": "pass_global_stmts-global_scope3-a36d20b",
    "cmd": "lfortran --pass=global_stmts --show-asr --no-color {infile} -o {outfile}",
    "infile": "tests/global_scope3.f90",
    "infile_hash": "60cea65abfbb2228d16f175ea192462ae2379d7a9da1601cb3de9f3a",
    "outfile": null,
    "outfile_hash": null,
    "stdout": "pass_global_stmts-global_scope3-a36d20b.stdout",
    "stdout_hash": "960e19384ac29af1435369435f9475596e83640db2b2a61ae08ced79",
    "stderr": null,
    "stderr_hash": null,
    "returncode": 0
}